# 3ds Max Wavefront OBJ Exporter v0.97b - (c)2007 guruware
# File Created: 24.04.2020 09:16:47

newmtl Material__25
	Ns 10.0000
	Ni 1.5000
	d 1.0000
	Tr 0.0000
	Tf 1.0000 1.0000 1.0000 
	illum 2
	Ka 0.5880 0.5880 0.5880
	Kd 0.5880 0.5880 0.5880
	Ks 0.0000 0.0000 0.0000
	Ke 0.0000 0.0000 0.0000
	map_Ka gris.png
	map_Kd gris.png

newmtl Mat_26
	Ns 43.2193
	Ni 1.5000
	d 1.0000
	Tr 0.0000
	Tf 1.0000 1.0000 1.0000 
	illum 2
	Ka 0.2000 0.2000 0.2000
	Kd 0.0039 0.0039 0.0039
	Ks 0.2000 0.2000 0.2000
	Ke 0.0000 0.0000 0.0000

newmtl Material__26
	Ns 10.0000
	Ni 1.5000
	d 1.0000
	Tr 0.0000
	Tf 1.0000 1.0000 1.0000 
	illum 2
	Ka 0.5880 0.5880 0.5880
	Kd 0.5880 0.5880 0.5880
	Ks 0.0000 0.0000 0.0000
	Ke 0.0000 0.0000 0.0000
	map_Ka amarillo.png
	map_Kd amarillo.png

newmtl 27__3660_bump_
	Ns 43.2193
	Ni 1.5000
	d 1.0000
	Tr 0.0000
	Tf 1.0000 1.0000 1.0000 
	illum 2
	Ka 0.2000 0.2000 0.2000
	Kd 0.1085 0.1218 0.1111
	Ks 0.2000 0.2000 0.2000
	Ke 0.0000 0.0000 0.0000

newmtl Mat_40
	Ns 43.2193
	Ni 1.5000
	d 0.5000
	Tr 0.5000
	Tf 0.5000 0.5000 0.5000 
	illum 2
	Ka 0.2000 0.2000 0.2000
	Kd 0.8706 0.8706 0.8706
	Ks 0.2000 0.2000 0.2000
	Ke 0.0000 0.0000 0.0000

newmtl Mat_41
	Ns 43.2193
	Ni 1.5000
	d 0.5000
	Tr 0.5000
	Tf 0.5000 0.5000 0.5000 
	illum 2
	Ka 0.2000 0.2000 0.2000
	Kd 0.3725 0.0000 0.0039
	Ks 0.2000 0.2000 0.2000
	Ke 0.0000 0.0000 0.0000
