# 3ds Max Wavefront OBJ Exporter v0.97b - (c)2007 guruware
# File Created: 21.04.2020 22:24:47

mtllib rejas.mtl

#
# object Object001
#

v  -11.5425 2.0000 -0.3380
v  -11.5425 2.2000 -0.3380
v  20.5425 2.2000 -0.3380
v  20.5425 2.0000 -0.3380
v  -11.5425 2.0000 0.3620
v  20.5425 2.0000 0.3620
v  20.5425 2.2000 0.3620
v  -11.5425 2.2000 0.3620
v  -4.0000 0.0000 0.2500
v  -4.0000 0.0000 -0.2500
v  -3.5000 0.0000 -0.2500
v  -3.5000 0.0000 0.2500
v  -4.0000 2.0000 0.2500
v  -3.5000 2.0000 0.2500
v  -3.5000 2.0000 -0.2500
v  -4.0000 2.0000 -0.2500
v  -11.5000 0.0000 0.2500
v  -11.5000 0.0000 -0.2500
v  -11.0000 0.0000 -0.2500
v  -11.0000 0.0000 0.2500
v  -11.5000 2.0000 0.2500
v  -11.0000 2.0000 0.2500
v  -11.0000 2.0000 -0.2500
v  -11.5000 2.0000 -0.2500
v  -10.0000 0.0000 0.2500
v  -10.0000 0.0000 -0.2500
v  -9.5000 0.0000 -0.2500
v  -9.5000 0.0000 0.2500
v  -10.0000 2.0000 0.2500
v  -9.5000 2.0000 0.2500
v  -9.5000 2.0000 -0.2500
v  -10.0000 2.0000 -0.2500
v  -8.5000 0.0000 0.2500
v  -8.5000 0.0000 -0.2500
v  -8.0000 0.0000 -0.2500
v  -8.0000 0.0000 0.2500
v  -8.5000 2.0000 0.2500
v  -8.0000 2.0000 0.2500
v  -8.0000 2.0000 -0.2500
v  -8.5000 2.0000 -0.2500
v  -7.0000 0.0000 0.2500
v  -7.0000 0.0000 -0.2500
v  -6.5000 0.0000 -0.2500
v  -6.5000 0.0000 0.2500
v  -7.0000 2.0000 0.2500
v  -6.5000 2.0000 0.2500
v  -6.5000 2.0000 -0.2500
v  -7.0000 2.0000 -0.2500
v  -5.5000 0.0000 0.2500
v  -5.5000 0.0000 -0.2500
v  -5.0000 0.0000 -0.2500
v  -5.0000 0.0000 0.2500
v  -5.5000 2.0000 0.2500
v  -5.0000 2.0000 0.2500
v  -5.0000 2.0000 -0.2500
v  -5.5000 2.0000 -0.2500
v  -2.5000 0.0000 0.2500
v  -2.5000 0.0000 -0.2500
v  -2.0000 0.0000 -0.2500
v  -2.0000 0.0000 0.2500
v  -2.5000 2.0000 0.2500
v  -2.0000 2.0000 0.2500
v  -2.0000 2.0000 -0.2500
v  -2.5000 2.0000 -0.2500
v  -1.0000 0.0000 0.2500
v  -1.0000 0.0000 -0.2500
v  -0.5000 0.0000 -0.2500
v  -0.5000 0.0000 0.2500
v  -1.0000 2.0000 0.2500
v  -0.5000 2.0000 0.2500
v  -0.5000 2.0000 -0.2500
v  -1.0000 2.0000 -0.2500
v  0.5000 0.0000 0.2500
v  0.5000 0.0000 -0.2500
v  1.0000 0.0000 -0.2500
v  1.0000 0.0000 0.2500
v  0.5000 2.0000 0.2500
v  1.0000 2.0000 0.2500
v  1.0000 2.0000 -0.2500
v  0.5000 2.0000 -0.2500
v  2.0000 0.0000 0.2500
v  2.0000 0.0000 -0.2500
v  2.5000 0.0000 -0.2500
v  2.5000 0.0000 0.2500
v  2.0000 2.0000 0.2500
v  2.5000 2.0000 0.2500
v  2.5000 2.0000 -0.2500
v  2.0000 2.0000 -0.2500
v  3.5000 0.0000 0.2500
v  3.5000 0.0000 -0.2500
v  4.0000 0.0000 -0.2500
v  4.0000 0.0000 0.2500
v  3.5000 2.0000 0.2500
v  4.0000 2.0000 0.2500
v  4.0000 2.0000 -0.2500
v  3.5000 2.0000 -0.2500
v  5.0000 0.0000 0.2500
v  5.0000 0.0000 -0.2500
v  5.5000 0.0000 -0.2500
v  5.5000 0.0000 0.2500
v  5.0000 2.0000 0.2500
v  5.5000 2.0000 0.2500
v  5.5000 2.0000 -0.2500
v  5.0000 2.0000 -0.2500
v  6.5000 0.0000 0.2500
v  6.5000 0.0000 -0.2500
v  7.0000 0.0000 -0.2500
v  7.0000 0.0000 0.2500
v  6.5000 2.0000 0.2500
v  7.0000 2.0000 0.2500
v  7.0000 2.0000 -0.2500
v  6.5000 2.0000 -0.2500
v  8.0000 0.0000 0.2500
v  8.0000 0.0000 -0.2500
v  8.5000 0.0000 -0.2500
v  8.5000 0.0000 0.2500
v  8.0000 2.0000 0.2500
v  8.5000 2.0000 0.2500
v  8.5000 2.0000 -0.2500
v  8.0000 2.0000 -0.2500
v  9.5000 0.0000 0.2500
v  9.5000 0.0000 -0.2500
v  10.0000 0.0000 -0.2500
v  10.0000 0.0000 0.2500
v  9.5000 2.0000 0.2500
v  10.0000 2.0000 0.2500
v  10.0000 2.0000 -0.2500
v  9.5000 2.0000 -0.2500
v  11.0000 0.0000 0.2500
v  11.0000 0.0000 -0.2500
v  11.5000 0.0000 -0.2500
v  11.5000 0.0000 0.2500
v  11.0000 2.0000 0.2500
v  11.5000 2.0000 0.2500
v  11.5000 2.0000 -0.2500
v  11.0000 2.0000 -0.2500
v  -11.5425 -0.2000 -0.3380
v  -11.5425 0.0000 -0.3380
v  20.5425 0.0000 -0.3380
v  20.5425 -0.2000 -0.3380
v  -11.5425 -0.2000 0.3620
v  20.5425 -0.2000 0.3620
v  20.5425 0.0000 0.3620
v  -11.5425 0.0000 0.3620
v  14.0000 0.0000 -0.2500
v  14.0000 2.0000 -0.2500
v  14.5000 2.0000 -0.2500
v  14.5000 0.0000 -0.2500
v  14.0000 -0.0000 0.2500
v  14.5000 -0.0000 0.2500
v  14.5000 2.0000 0.2500
v  14.0000 2.0000 0.2500
v  12.5000 0.0000 -0.2500
v  12.5000 2.0000 -0.2500
v  13.0000 2.0000 -0.2500
v  13.0000 0.0000 -0.2500
v  12.5000 -0.0000 0.2500
v  13.0000 -0.0000 0.2500
v  13.0000 2.0000 0.2500
v  12.5000 2.0000 0.2500
v  16.9999 0.0000 -0.2361
v  16.9999 2.0000 -0.2361
v  17.4999 2.0000 -0.2361
v  17.4999 0.0000 -0.2361
v  16.9999 -0.0000 0.2639
v  17.4999 -0.0000 0.2639
v  17.4999 2.0000 0.2639
v  16.9999 2.0000 0.2639
v  15.5000 0.0000 -0.2500
v  15.5000 2.0000 -0.2500
v  16.0000 2.0000 -0.2500
v  16.0000 0.0000 -0.2500
v  15.5000 -0.0000 0.2500
v  16.0000 -0.0000 0.2500
v  16.0000 2.0000 0.2500
v  15.5000 2.0000 0.2500
v  18.5000 0.0000 -0.2500
v  18.5000 2.0000 -0.2500
v  19.0000 2.0000 -0.2500
v  19.0000 0.0000 -0.2500
v  18.5000 -0.0000 0.2500
v  19.0000 -0.0000 0.2500
v  19.0000 2.0000 0.2500
v  18.5000 2.0000 0.2500
v  19.9999 0.0000 -0.2361
v  19.9999 2.0000 -0.2361
v  20.4999 2.0000 -0.2361
v  20.4999 0.0000 -0.2361
v  19.9999 -0.0000 0.2639
v  20.4999 -0.0000 0.2639
v  20.4999 2.0000 0.2639
v  19.9999 2.0000 0.2639
# 192 vertices

vn 0.0000 0.0000 -1.0000
vn 0.0000 0.0000 1.0000
vn 0.0000 -1.0000 -0.0000
vn 1.0000 0.0000 -0.0000
vn 0.0000 1.0000 -0.0000
vn -1.0000 0.0000 -0.0000
vn 0.0000 1.0000 0.0000
vn 0.0000 -0.0000 1.0000
vn -0.0000 0.0000 -1.0000
vn -0.0000 -1.0000 -0.0000
# 10 vertex normals

vt 1.0000 0.0000 0.0000
vt 1.0000 1.0000 0.0000
vt 0.0000 1.0000 0.0000
vt 0.0000 0.0000 0.0000
# 4 texture coords

o Object001
g Object001
usemtl Material__26
s 2
f 1/1/1 2/2/1 3/3/1 
f 3/3/1 4/4/1 1/1/1 
s 4
f 5/4/2 6/1/2 7/2/2 
f 7/2/2 8/3/2 5/4/2 
s 8
f 1/4/3 4/1/3 6/2/3 
f 6/2/3 5/3/3 1/4/3 
s 16
f 4/4/4 3/1/4 7/2/4 
f 7/2/4 6/3/4 4/4/4 
s 32
f 3/4/5 2/1/5 8/2/5 
f 8/2/5 7/3/5 3/4/5 
s 64
f 2/4/6 1/1/6 5/2/6 
f 5/2/6 8/3/6 2/4/6 
s 2
f 9/1/3 10/2/3 11/3/3 
f 11/3/3 12/4/3 9/1/3 
s 4
f 13/4/5 14/1/5 15/2/5 
f 15/2/5 16/3/5 13/4/5 
s 8
f 9/4/2 12/1/2 14/2/2 
f 14/2/2 13/3/2 9/4/2 
s 16
f 12/4/4 11/1/4 15/2/4 
f 15/2/4 14/3/4 12/4/4 
s 32
f 11/4/1 10/1/1 16/2/1 
f 16/2/1 15/3/1 11/4/1 
s 64
f 10/4/6 9/1/6 13/2/6 
f 13/2/6 16/3/6 10/4/6 
s 2
f 17/1/3 18/2/3 19/3/3 
f 19/3/3 20/4/3 17/1/3 
s 4
f 21/4/7 22/1/7 23/2/7 
f 23/2/7 24/3/7 21/4/7 
s 8
f 17/4/2 20/1/2 22/2/2 
f 22/2/2 21/3/2 17/4/2 
s 16
f 20/4/4 19/1/4 23/2/4 
f 23/2/4 22/3/4 20/4/4 
s 32
f 19/4/1 18/1/1 24/2/1 
f 24/2/1 23/3/1 19/4/1 
s 64
f 18/4/6 17/1/6 21/2/6 
f 21/2/6 24/3/6 18/4/6 
s 2
f 25/1/3 26/2/3 27/3/3 
f 27/3/3 28/4/3 25/1/3 
s 4
f 29/4/7 30/1/7 31/2/7 
f 31/2/7 32/3/7 29/4/7 
s 8
f 25/4/2 28/1/2 30/2/2 
f 30/2/2 29/3/2 25/4/2 
s 16
f 28/4/4 27/1/4 31/2/4 
f 31/2/4 30/3/4 28/4/4 
s 32
f 27/4/1 26/1/1 32/2/1 
f 32/2/1 31/3/1 27/4/1 
s 64
f 26/4/6 25/1/6 29/2/6 
f 29/2/6 32/3/6 26/4/6 
s 2
f 33/1/3 34/2/3 35/3/3 
f 35/3/3 36/4/3 33/1/3 
s 4
f 37/4/7 38/1/7 39/2/7 
f 39/2/7 40/3/7 37/4/7 
s 8
f 33/4/2 36/1/2 38/2/2 
f 38/2/2 37/3/2 33/4/2 
s 16
f 36/4/4 35/1/4 39/2/4 
f 39/2/4 38/3/4 36/4/4 
s 32
f 35/4/1 34/1/1 40/2/1 
f 40/2/1 39/3/1 35/4/1 
s 64
f 34/4/6 33/1/6 37/2/6 
f 37/2/6 40/3/6 34/4/6 
s 2
f 41/1/3 42/2/3 43/3/3 
f 43/3/3 44/4/3 41/1/3 
s 4
f 45/4/7 46/1/7 47/2/7 
f 47/2/7 48/3/7 45/4/7 
s 8
f 41/4/2 44/1/2 46/2/2 
f 46/2/2 45/3/2 41/4/2 
s 16
f 44/4/4 43/1/4 47/2/4 
f 47/2/4 46/3/4 44/4/4 
s 32
f 43/4/1 42/1/1 48/2/1 
f 48/2/1 47/3/1 43/4/1 
s 64
f 42/4/6 41/1/6 45/2/6 
f 45/2/6 48/3/6 42/4/6 
s 2
f 49/1/3 50/2/3 51/3/3 
f 51/3/3 52/4/3 49/1/3 
s 4
f 53/4/7 54/1/7 55/2/7 
f 55/2/7 56/3/7 53/4/7 
s 8
f 49/4/2 52/1/2 54/2/2 
f 54/2/2 53/3/2 49/4/2 
s 16
f 52/4/4 51/1/4 55/2/4 
f 55/2/4 54/3/4 52/4/4 
s 32
f 51/4/1 50/1/1 56/2/1 
f 56/2/1 55/3/1 51/4/1 
s 64
f 50/4/6 49/1/6 53/2/6 
f 53/2/6 56/3/6 50/4/6 
s 2
f 57/1/3 58/2/3 59/3/3 
f 59/3/3 60/4/3 57/1/3 
s 4
f 61/4/7 62/1/7 63/2/7 
f 63/2/7 64/3/7 61/4/7 
s 8
f 57/4/2 60/1/2 62/2/2 
f 62/2/2 61/3/2 57/4/2 
s 16
f 60/4/4 59/1/4 63/2/4 
f 63/2/4 62/3/4 60/4/4 
s 32
f 59/4/1 58/1/1 64/2/1 
f 64/2/1 63/3/1 59/4/1 
s 64
f 58/4/6 57/1/6 61/2/6 
f 61/2/6 64/3/6 58/4/6 
s 2
f 65/1/3 66/2/3 67/3/3 
f 67/3/3 68/4/3 65/1/3 
s 4
f 69/4/7 70/1/7 71/2/7 
f 71/2/7 72/3/7 69/4/7 
s 8
f 65/4/2 68/1/2 70/2/2 
f 70/2/2 69/3/2 65/4/2 
s 16
f 68/4/4 67/1/4 71/2/4 
f 71/2/4 70/3/4 68/4/4 
s 32
f 67/4/1 66/1/1 72/2/1 
f 72/2/1 71/3/1 67/4/1 
s 64
f 66/4/6 65/1/6 69/2/6 
f 69/2/6 72/3/6 66/4/6 
s 2
f 73/1/3 74/2/3 75/3/3 
f 75/3/3 76/4/3 73/1/3 
s 4
f 77/4/7 78/1/7 79/2/7 
f 79/2/7 80/3/7 77/4/7 
s 8
f 73/4/2 76/1/2 78/2/2 
f 78/2/2 77/3/2 73/4/2 
s 16
f 76/4/4 75/1/4 79/2/4 
f 79/2/4 78/3/4 76/4/4 
s 32
f 75/4/1 74/1/1 80/2/1 
f 80/2/1 79/3/1 75/4/1 
s 64
f 74/4/6 73/1/6 77/2/6 
f 77/2/6 80/3/6 74/4/6 
s 2
f 81/1/3 82/2/3 83/3/3 
f 83/3/3 84/4/3 81/1/3 
s 4
f 85/4/7 86/1/7 87/2/7 
f 87/2/7 88/3/7 85/4/7 
s 8
f 81/4/2 84/1/2 86/2/2 
f 86/2/2 85/3/2 81/4/2 
s 16
f 84/4/4 83/1/4 87/2/4 
f 87/2/4 86/3/4 84/4/4 
s 32
f 83/4/1 82/1/1 88/2/1 
f 88/2/1 87/3/1 83/4/1 
s 64
f 82/4/6 81/1/6 85/2/6 
f 85/2/6 88/3/6 82/4/6 
s 2
f 89/1/3 90/2/3 91/3/3 
f 91/3/3 92/4/3 89/1/3 
s 4
f 93/4/7 94/1/7 95/2/7 
f 95/2/7 96/3/7 93/4/7 
s 8
f 89/4/2 92/1/2 94/2/2 
f 94/2/2 93/3/2 89/4/2 
s 16
f 92/4/4 91/1/4 95/2/4 
f 95/2/4 94/3/4 92/4/4 
s 32
f 91/4/1 90/1/1 96/2/1 
f 96/2/1 95/3/1 91/4/1 
s 64
f 90/4/6 89/1/6 93/2/6 
f 93/2/6 96/3/6 90/4/6 
s 2
f 97/1/3 98/2/3 99/3/3 
f 99/3/3 100/4/3 97/1/3 
s 4
f 101/4/5 102/1/5 103/2/5 
f 103/2/5 104/3/5 101/4/5 
s 8
f 97/4/2 100/1/2 102/2/2 
f 102/2/2 101/3/2 97/4/2 
s 16
f 100/4/4 99/1/4 103/2/4 
f 103/2/4 102/3/4 100/4/4 
s 32
f 99/4/1 98/1/1 104/2/1 
f 104/2/1 103/3/1 99/4/1 
s 64
f 98/4/6 97/1/6 101/2/6 
f 101/2/6 104/3/6 98/4/6 
s 2
f 105/1/3 106/2/3 107/3/3 
f 107/3/3 108/4/3 105/1/3 
s 4
f 109/4/5 110/1/5 111/2/5 
f 111/2/5 112/3/5 109/4/5 
s 8
f 105/4/2 108/1/2 110/2/2 
f 110/2/2 109/3/2 105/4/2 
s 16
f 108/4/4 107/1/4 111/2/4 
f 111/2/4 110/3/4 108/4/4 
s 32
f 107/4/1 106/1/1 112/2/1 
f 112/2/1 111/3/1 107/4/1 
s 64
f 106/4/6 105/1/6 109/2/6 
f 109/2/6 112/3/6 106/4/6 
s 2
f 113/1/3 114/2/3 115/3/3 
f 115/3/3 116/4/3 113/1/3 
s 4
f 117/4/5 118/1/5 119/2/5 
f 119/2/5 120/3/5 117/4/5 
s 8
f 113/4/2 116/1/2 118/2/2 
f 118/2/2 117/3/2 113/4/2 
s 16
f 116/4/4 115/1/4 119/2/4 
f 119/2/4 118/3/4 116/4/4 
s 32
f 115/4/1 114/1/1 120/2/1 
f 120/2/1 119/3/1 115/4/1 
s 64
f 114/4/6 113/1/6 117/2/6 
f 117/2/6 120/3/6 114/4/6 
s 2
f 121/1/3 122/2/3 123/3/3 
f 123/3/3 124/4/3 121/1/3 
s 4
f 125/4/5 126/1/5 127/2/5 
f 127/2/5 128/3/5 125/4/5 
s 8
f 121/4/2 124/1/2 126/2/2 
f 126/2/2 125/3/2 121/4/2 
s 16
f 124/4/4 123/1/4 127/2/4 
f 127/2/4 126/3/4 124/4/4 
s 32
f 123/4/1 122/1/1 128/2/1 
f 128/2/1 127/3/1 123/4/1 
s 64
f 122/4/6 121/1/6 125/2/6 
f 125/2/6 128/3/6 122/4/6 
s 2
f 129/1/3 130/2/3 131/3/3 
f 131/3/3 132/4/3 129/1/3 
s 4
f 133/4/5 134/1/5 135/2/5 
f 135/2/5 136/3/5 133/4/5 
s 8
f 129/4/2 132/1/2 134/2/2 
f 134/2/2 133/3/2 129/4/2 
s 16
f 132/4/4 131/1/4 135/2/4 
f 135/2/4 134/3/4 132/4/4 
s 32
f 131/4/1 130/1/1 136/2/1 
f 136/2/1 135/3/1 131/4/1 
s 64
f 130/4/6 129/1/6 133/2/6 
f 133/2/6 136/3/6 130/4/6 
s 2
f 137/1/1 138/2/1 139/3/1 
f 139/3/1 140/4/1 137/1/1 
s 4
f 141/4/2 142/1/2 143/2/2 
f 143/2/2 144/3/2 141/4/2 
s 8
f 137/4/3 140/1/3 142/2/3 
f 142/2/3 141/3/3 137/4/3 
s 16
f 140/4/4 139/1/4 143/2/4 
f 143/2/4 142/3/4 140/4/4 
s 32
f 139/4/5 138/1/5 144/2/5 
f 144/2/5 143/3/5 139/4/5 
s 64
f 138/4/6 137/1/6 141/2/6 
f 141/2/6 144/3/6 138/4/6 
s 2
f 145/1/1 146/2/1 147/3/1 
f 147/3/1 148/4/1 145/1/1 
s 4
f 149/4/8 150/1/8 151/2/8 
f 151/2/8 152/3/8 149/4/8 
s 8
f 145/4/3 148/1/3 150/2/3 
f 150/2/3 149/3/3 145/4/3 
s 16
f 148/4/4 147/1/4 151/2/4 
f 151/2/4 150/3/4 148/4/4 
s 32
f 147/4/5 146/1/5 152/2/5 
f 152/2/5 151/3/5 147/4/5 
s 64
f 146/4/6 145/1/6 149/2/6 
f 149/2/6 152/3/6 146/4/6 
s 2
f 153/1/1 154/2/1 155/3/1 
f 155/3/1 156/4/1 153/1/1 
s 4
f 157/4/8 158/1/8 159/2/8 
f 159/2/8 160/3/8 157/4/8 
s 8
f 153/4/3 156/1/3 158/2/3 
f 158/2/3 157/3/3 153/4/3 
s 16
f 156/4/4 155/1/4 159/2/4 
f 159/2/4 158/3/4 156/4/4 
s 32
f 155/4/5 154/1/5 160/2/5 
f 160/2/5 159/3/5 155/4/5 
s 64
f 154/4/6 153/1/6 157/2/6 
f 157/2/6 160/3/6 154/4/6 
s 2
f 161/1/9 162/2/9 163/3/9 
f 163/3/9 164/4/9 161/1/9 
s 4
f 165/4/8 166/1/8 167/2/8 
f 167/2/8 168/3/8 165/4/8 
s 8
f 161/4/10 164/1/10 166/2/10 
f 166/2/10 165/3/10 161/4/10 
s 16
f 164/4/4 163/1/4 167/2/4 
f 167/2/4 166/3/4 164/4/4 
s 32
f 163/4/5 162/1/5 168/2/5 
f 168/2/5 167/3/5 163/4/5 
s 64
f 162/4/6 161/1/6 165/2/6 
f 165/2/6 168/3/6 162/4/6 
s 2
f 169/1/9 170/2/9 171/3/9 
f 171/3/9 172/4/9 169/1/9 
s 4
f 173/4/8 174/1/8 175/2/8 
f 175/2/8 176/3/8 173/4/8 
s 8
f 169/4/10 172/1/10 174/2/10 
f 174/2/10 173/3/10 169/4/10 
s 16
f 172/4/4 171/1/4 175/2/4 
f 175/2/4 174/3/4 172/4/4 
s 32
f 171/4/5 170/1/5 176/2/5 
f 176/2/5 175/3/5 171/4/5 
s 64
f 170/4/6 169/1/6 173/2/6 
f 173/2/6 176/3/6 170/4/6 
s 2
f 177/1/9 178/2/9 179/3/9 
f 179/3/9 180/4/9 177/1/9 
s 4
f 181/4/8 182/1/8 183/2/8 
f 183/2/8 184/3/8 181/4/8 
s 8
f 177/4/10 180/1/10 182/2/10 
f 182/2/10 181/3/10 177/4/10 
s 16
f 180/4/4 179/1/4 183/2/4 
f 183/2/4 182/3/4 180/4/4 
s 32
f 179/4/5 178/1/5 184/2/5 
f 184/2/5 183/3/5 179/4/5 
s 64
f 178/4/6 177/1/6 181/2/6 
f 181/2/6 184/3/6 178/4/6 
s 2
f 185/1/9 186/2/9 187/3/9 
f 187/3/9 188/4/9 185/1/9 
s 4
f 189/4/8 190/1/8 191/2/8 
f 191/2/8 192/3/8 189/4/8 
s 8
f 185/4/10 188/1/10 190/2/10 
f 190/2/10 189/3/10 185/4/10 
s 16
f 188/4/4 187/1/4 191/2/4 
f 191/2/4 190/3/4 188/4/4 
s 32
f 187/4/5 186/1/5 192/2/5 
f 192/2/5 191/3/5 187/4/5 
s 64
f 186/4/6 185/1/6 189/2/6 
f 189/2/6 192/3/6 186/4/6 
# 288 faces

#
# object Object002
#

v  -10.8620 2.0000 -0.2925
v  -10.8620 2.2000 -0.2925
v  -10.8620 2.2000 31.7925
v  -10.8620 2.0000 31.7925
v  -11.5620 2.0000 -0.2925
v  -11.5620 2.0000 31.7925
v  -11.5620 2.2000 31.7925
v  -11.5620 2.2000 -0.2925
v  -11.4500 0.0000 7.2500
v  -10.9500 0.0000 7.2500
v  -10.9500 0.0000 7.7500
v  -11.4500 0.0000 7.7500
v  -11.4500 2.0000 7.2500
v  -11.4500 2.0000 7.7500
v  -10.9500 2.0000 7.7500
v  -10.9500 2.0000 7.2500
v  -11.4500 0.0000 -0.2500
v  -10.9500 0.0000 -0.2500
v  -10.9500 0.0000 0.2500
v  -11.4500 0.0000 0.2500
v  -11.4500 2.0000 -0.2500
v  -11.4500 2.0000 0.2500
v  -10.9500 2.0000 0.2500
v  -10.9500 2.0000 -0.2500
v  -11.4500 0.0000 1.2500
v  -10.9500 0.0000 1.2500
v  -10.9500 0.0000 1.7500
v  -11.4500 0.0000 1.7500
v  -11.4500 2.0000 1.2500
v  -11.4500 2.0000 1.7500
v  -10.9500 2.0000 1.7500
v  -10.9500 2.0000 1.2500
v  -11.4500 0.0000 2.7500
v  -10.9500 0.0000 2.7500
v  -10.9500 0.0000 3.2500
v  -11.4500 0.0000 3.2500
v  -11.4500 2.0000 2.7500
v  -11.4500 2.0000 3.2500
v  -10.9500 2.0000 3.2500
v  -10.9500 2.0000 2.7500
v  -11.4500 0.0000 4.2500
v  -10.9500 0.0000 4.2500
v  -10.9500 0.0000 4.7500
v  -11.4500 0.0000 4.7500
v  -11.4500 2.0000 4.2500
v  -11.4500 2.0000 4.7500
v  -10.9500 2.0000 4.7500
v  -10.9500 2.0000 4.2500
v  -11.4500 0.0000 5.7500
v  -10.9500 0.0000 5.7500
v  -10.9500 0.0000 6.2500
v  -11.4500 0.0000 6.2500
v  -11.4500 2.0000 5.7500
v  -11.4500 2.0000 6.2500
v  -10.9500 2.0000 6.2500
v  -10.9500 2.0000 5.7500
v  -11.4500 0.0000 8.7500
v  -10.9500 0.0000 8.7500
v  -10.9500 0.0000 9.2500
v  -11.4500 0.0000 9.2500
v  -11.4500 2.0000 8.7500
v  -11.4500 2.0000 9.2500
v  -10.9500 2.0000 9.2500
v  -10.9500 2.0000 8.7500
v  -11.4500 0.0000 10.2500
v  -10.9500 0.0000 10.2500
v  -10.9500 0.0000 10.7500
v  -11.4500 0.0000 10.7500
v  -11.4500 2.0000 10.2500
v  -11.4500 2.0000 10.7500
v  -10.9500 2.0000 10.7500
v  -10.9500 2.0000 10.2500
v  -11.4500 0.0000 11.7500
v  -10.9500 0.0000 11.7500
v  -10.9500 0.0000 12.2500
v  -11.4500 0.0000 12.2500
v  -11.4500 2.0000 11.7500
v  -11.4500 2.0000 12.2500
v  -10.9500 2.0000 12.2500
v  -10.9500 2.0000 11.7500
v  -11.4500 0.0000 13.2500
v  -10.9500 0.0000 13.2500
v  -10.9500 0.0000 13.7500
v  -11.4500 0.0000 13.7500
v  -11.4500 2.0000 13.2500
v  -11.4500 2.0000 13.7500
v  -10.9500 2.0000 13.7500
v  -10.9500 2.0000 13.2500
v  -11.4500 0.0000 14.7500
v  -10.9500 0.0000 14.7500
v  -10.9500 0.0000 15.2500
v  -11.4500 0.0000 15.2500
v  -11.4500 2.0000 14.7500
v  -11.4500 2.0000 15.2500
v  -10.9500 2.0000 15.2500
v  -10.9500 2.0000 14.7500
v  -11.4500 0.0000 16.2500
v  -10.9500 0.0000 16.2500
v  -10.9500 0.0000 16.7500
v  -11.4500 0.0000 16.7500
v  -11.4500 2.0000 16.2500
v  -11.4500 2.0000 16.7500
v  -10.9500 2.0000 16.7500
v  -10.9500 2.0000 16.2500
v  -11.4500 0.0000 17.7500
v  -10.9500 0.0000 17.7500
v  -10.9500 0.0000 18.2500
v  -11.4500 0.0000 18.2500
v  -11.4500 2.0000 17.7500
v  -11.4500 2.0000 18.2500
v  -10.9500 2.0000 18.2500
v  -10.9500 2.0000 17.7500
v  -11.4500 0.0000 19.2500
v  -10.9500 0.0000 19.2500
v  -10.9500 0.0000 19.7500
v  -11.4500 0.0000 19.7500
v  -11.4500 2.0000 19.2500
v  -11.4500 2.0000 19.7500
v  -10.9500 2.0000 19.7500
v  -10.9500 2.0000 19.2500
v  -11.4500 0.0000 20.7500
v  -10.9500 0.0000 20.7500
v  -10.9500 0.0000 21.2500
v  -11.4500 0.0000 21.2500
v  -11.4500 2.0000 20.7500
v  -11.4500 2.0000 21.2500
v  -10.9500 2.0000 21.2500
v  -10.9500 2.0000 20.7500
v  -11.4500 0.0000 22.2500
v  -10.9500 0.0000 22.2500
v  -10.9500 0.0000 22.7500
v  -11.4500 0.0000 22.7500
v  -11.4500 2.0000 22.2500
v  -11.4500 2.0000 22.7500
v  -10.9500 2.0000 22.7500
v  -10.9500 2.0000 22.2500
v  -10.8620 -0.2000 -0.2925
v  -10.8620 0.0000 -0.2925
v  -10.8620 0.0000 31.7925
v  -10.8620 -0.2000 31.7925
v  -11.5620 -0.2000 -0.2925
v  -11.5620 -0.2000 31.7925
v  -11.5620 0.0000 31.7925
v  -11.5620 0.0000 -0.2925
v  -10.9500 0.0000 25.2500
v  -10.9500 2.0000 25.2500
v  -10.9500 2.0000 25.7500
v  -10.9500 0.0000 25.7500
v  -11.4500 -0.0000 25.2500
v  -11.4500 -0.0000 25.7500
v  -11.4500 2.0000 25.7500
v  -11.4500 2.0000 25.2500
v  -10.9500 0.0000 23.7500
v  -10.9500 2.0000 23.7500
v  -10.9500 2.0000 24.2500
v  -10.9500 0.0000 24.2500
v  -11.4500 -0.0000 23.7500
v  -11.4500 -0.0000 24.2500
v  -11.4500 2.0000 24.2500
v  -11.4500 2.0000 23.7500
v  -10.9639 0.0000 28.2499
v  -10.9639 2.0000 28.2499
v  -10.9639 2.0000 28.7499
v  -10.9639 0.0000 28.7499
v  -11.4639 -0.0000 28.2499
v  -11.4639 -0.0000 28.7499
v  -11.4639 2.0000 28.7499
v  -11.4639 2.0000 28.2499
v  -10.9500 0.0000 26.7500
v  -10.9500 2.0000 26.7500
v  -10.9500 2.0000 27.2500
v  -10.9500 0.0000 27.2500
v  -11.4500 -0.0000 26.7500
v  -11.4500 -0.0000 27.2500
v  -11.4500 2.0000 27.2500
v  -11.4500 2.0000 26.7500
v  -10.9500 0.0000 29.7500
v  -10.9500 2.0000 29.7500
v  -10.9500 2.0000 30.2500
v  -10.9500 0.0000 30.2500
v  -11.4500 -0.0000 29.7500
v  -11.4500 -0.0000 30.2500
v  -11.4500 2.0000 30.2500
v  -11.4500 2.0000 29.7500
v  -10.9639 0.0000 31.2499
v  -10.9639 2.0000 31.2499
v  -10.9639 2.0000 31.7499
v  -10.9639 0.0000 31.7499
v  -11.4639 -0.0000 31.2499
v  -11.4639 -0.0000 31.7499
v  -11.4639 2.0000 31.7499
v  -11.4639 2.0000 31.2499
# 192 vertices

vn 1.0000 0.0000 0.0000
vn -1.0000 0.0000 -0.0000
vn 0.0000 -1.0000 0.0000
vn -0.0000 0.0000 1.0000
vn 0.0000 1.0000 -0.0000
vn 0.0000 0.0000 -1.0000
vn 0.0000 -1.0000 -0.0000
vn -0.0000 1.0000 -0.0000
vn -1.0000 -0.0000 -0.0000
vn 1.0000 0.0000 -0.0000
vn -1.0000 -0.0000 0.0000
# 11 vertex normals

vt 1.0000 0.0000 0.0000
vt 1.0000 1.0000 0.0000
vt 0.0000 1.0000 0.0000
vt 0.0000 0.0000 0.0000
# 4 texture coords

o Object002
g Object002
usemtl Material__26
s 2
f 193/5/11 194/6/11 195/7/11 
f 195/7/11 196/8/11 193/5/11 
s 4
f 197/8/12 198/5/12 199/6/12 
f 199/6/12 200/7/12 197/8/12 
s 8
f 193/8/13 196/5/13 198/6/13 
f 198/6/13 197/7/13 193/8/13 
s 16
f 196/8/14 195/5/14 199/6/14 
f 199/6/14 198/7/14 196/8/14 
s 32
f 195/8/15 194/5/15 200/6/15 
f 200/6/15 199/7/15 195/8/15 
s 64
f 194/8/16 193/5/16 197/6/16 
f 197/6/16 200/7/16 194/8/16 
s 2
f 201/5/17 202/6/17 203/7/17 
f 203/7/17 204/8/17 201/5/17 
s 4
f 205/8/15 206/5/15 207/6/15 
f 207/6/15 208/7/15 205/8/15 
s 8
f 201/8/12 204/5/12 206/6/12 
f 206/6/12 205/7/12 201/8/12 
s 16
f 204/8/14 203/5/14 207/6/14 
f 207/6/14 206/7/14 204/8/14 
s 32
f 203/8/11 202/5/11 208/6/11 
f 208/6/11 207/7/11 203/8/11 
s 64
f 202/8/16 201/5/16 205/6/16 
f 205/6/16 208/7/16 202/8/16 
s 2
f 209/5/17 210/6/17 211/7/17 
f 211/7/17 212/8/17 209/5/17 
s 4
f 213/8/18 214/5/18 215/6/18 
f 215/6/18 216/7/18 213/8/18 
s 8
f 209/8/12 212/5/12 214/6/12 
f 214/6/12 213/7/12 209/8/12 
s 16
f 212/8/14 211/5/14 215/6/14 
f 215/6/14 214/7/14 212/8/14 
s 32
f 211/8/11 210/5/11 216/6/11 
f 216/6/11 215/7/11 211/8/11 
s 64
f 210/8/16 209/5/16 213/6/16 
f 213/6/16 216/7/16 210/8/16 
s 2
f 217/5/17 218/6/17 219/7/17 
f 219/7/17 220/8/17 217/5/17 
s 4
f 221/8/18 222/5/18 223/6/18 
f 223/6/18 224/7/18 221/8/18 
s 8
f 217/8/12 220/5/12 222/6/12 
f 222/6/12 221/7/12 217/8/12 
s 16
f 220/8/14 219/5/14 223/6/14 
f 223/6/14 222/7/14 220/8/14 
s 32
f 219/8/11 218/5/11 224/6/11 
f 224/6/11 223/7/11 219/8/11 
s 64
f 218/8/16 217/5/16 221/6/16 
f 221/6/16 224/7/16 218/8/16 
s 2
f 225/5/17 226/6/17 227/7/17 
f 227/7/17 228/8/17 225/5/17 
s 4
f 229/8/18 230/5/18 231/6/18 
f 231/6/18 232/7/18 229/8/18 
s 8
f 225/8/12 228/5/12 230/6/12 
f 230/6/12 229/7/12 225/8/12 
s 16
f 228/8/14 227/5/14 231/6/14 
f 231/6/14 230/7/14 228/8/14 
s 32
f 227/8/11 226/5/11 232/6/11 
f 232/6/11 231/7/11 227/8/11 
s 64
f 226/8/16 225/5/16 229/6/16 
f 229/6/16 232/7/16 226/8/16 
s 2
f 233/5/17 234/6/17 235/7/17 
f 235/7/17 236/8/17 233/5/17 
s 4
f 237/8/18 238/5/18 239/6/18 
f 239/6/18 240/7/18 237/8/18 
s 8
f 233/8/12 236/5/12 238/6/12 
f 238/6/12 237/7/12 233/8/12 
s 16
f 236/8/14 235/5/14 239/6/14 
f 239/6/14 238/7/14 236/8/14 
s 32
f 235/8/11 234/5/11 240/6/11 
f 240/6/11 239/7/11 235/8/11 
s 64
f 234/8/16 233/5/16 237/6/16 
f 237/6/16 240/7/16 234/8/16 
s 2
f 241/5/17 242/6/17 243/7/17 
f 243/7/17 244/8/17 241/5/17 
s 4
f 245/8/18 246/5/18 247/6/18 
f 247/6/18 248/7/18 245/8/18 
s 8
f 241/8/12 244/5/12 246/6/12 
f 246/6/12 245/7/12 241/8/12 
s 16
f 244/8/14 243/5/14 247/6/14 
f 247/6/14 246/7/14 244/8/14 
s 32
f 243/8/11 242/5/11 248/6/11 
f 248/6/11 247/7/11 243/8/11 
s 64
f 242/8/16 241/5/16 245/6/16 
f 245/6/16 248/7/16 242/8/16 
s 2
f 249/5/17 250/6/17 251/7/17 
f 251/7/17 252/8/17 249/5/17 
s 4
f 253/8/18 254/5/18 255/6/18 
f 255/6/18 256/7/18 253/8/18 
s 8
f 249/8/12 252/5/12 254/6/12 
f 254/6/12 253/7/12 249/8/12 
s 16
f 252/8/14 251/5/14 255/6/14 
f 255/6/14 254/7/14 252/8/14 
s 32
f 251/8/11 250/5/11 256/6/11 
f 256/6/11 255/7/11 251/8/11 
s 64
f 250/8/16 249/5/16 253/6/16 
f 253/6/16 256/7/16 250/8/16 
s 2
f 257/5/17 258/6/17 259/7/17 
f 259/7/17 260/8/17 257/5/17 
s 4
f 261/8/18 262/5/18 263/6/18 
f 263/6/18 264/7/18 261/8/18 
s 8
f 257/8/12 260/5/12 262/6/12 
f 262/6/12 261/7/12 257/8/12 
s 16
f 260/8/14 259/5/14 263/6/14 
f 263/6/14 262/7/14 260/8/14 
s 32
f 259/8/11 258/5/11 264/6/11 
f 264/6/11 263/7/11 259/8/11 
s 64
f 258/8/16 257/5/16 261/6/16 
f 261/6/16 264/7/16 258/8/16 
s 2
f 265/5/17 266/6/17 267/7/17 
f 267/7/17 268/8/17 265/5/17 
s 4
f 269/8/18 270/5/18 271/6/18 
f 271/6/18 272/7/18 269/8/18 
s 8
f 265/8/12 268/5/12 270/6/12 
f 270/6/12 269/7/12 265/8/12 
s 16
f 268/8/14 267/5/14 271/6/14 
f 271/6/14 270/7/14 268/8/14 
s 32
f 267/8/11 266/5/11 272/6/11 
f 272/6/11 271/7/11 267/8/11 
s 64
f 266/8/16 265/5/16 269/6/16 
f 269/6/16 272/7/16 266/8/16 
s 2
f 273/5/17 274/6/17 275/7/17 
f 275/7/17 276/8/17 273/5/17 
s 4
f 277/8/18 278/5/18 279/6/18 
f 279/6/18 280/7/18 277/8/18 
s 8
f 273/8/12 276/5/12 278/6/12 
f 278/6/12 277/7/12 273/8/12 
s 16
f 276/8/14 275/5/14 279/6/14 
f 279/6/14 278/7/14 276/8/14 
s 32
f 275/8/11 274/5/11 280/6/11 
f 280/6/11 279/7/11 275/8/11 
s 64
f 274/8/16 273/5/16 277/6/16 
f 277/6/16 280/7/16 274/8/16 
s 2
f 281/5/17 282/6/17 283/7/17 
f 283/7/17 284/8/17 281/5/17 
s 4
f 285/8/18 286/5/18 287/6/18 
f 287/6/18 288/7/18 285/8/18 
s 8
f 281/8/12 284/5/12 286/6/12 
f 286/6/12 285/7/12 281/8/12 
s 16
f 284/8/14 283/5/14 287/6/14 
f 287/6/14 286/7/14 284/8/14 
s 32
f 283/8/11 282/5/11 288/6/11 
f 288/6/11 287/7/11 283/8/11 
s 64
f 282/8/16 281/5/16 285/6/16 
f 285/6/16 288/7/16 282/8/16 
s 2
f 289/5/17 290/6/17 291/7/17 
f 291/7/17 292/8/17 289/5/17 
s 4
f 293/8/15 294/5/15 295/6/15 
f 295/6/15 296/7/15 293/8/15 
s 8
f 289/8/12 292/5/12 294/6/12 
f 294/6/12 293/7/12 289/8/12 
s 16
f 292/8/14 291/5/14 295/6/14 
f 295/6/14 294/7/14 292/8/14 
s 32
f 291/8/11 290/5/11 296/6/11 
f 296/6/11 295/7/11 291/8/11 
s 64
f 290/8/16 289/5/16 293/6/16 
f 293/6/16 296/7/16 290/8/16 
s 2
f 297/5/17 298/6/17 299/7/17 
f 299/7/17 300/8/17 297/5/17 
s 4
f 301/8/15 302/5/15 303/6/15 
f 303/6/15 304/7/15 301/8/15 
s 8
f 297/8/12 300/5/12 302/6/12 
f 302/6/12 301/7/12 297/8/12 
s 16
f 300/8/14 299/5/14 303/6/14 
f 303/6/14 302/7/14 300/8/14 
s 32
f 299/8/11 298/5/11 304/6/11 
f 304/6/11 303/7/11 299/8/11 
s 64
f 298/8/16 297/5/16 301/6/16 
f 301/6/16 304/7/16 298/8/16 
s 2
f 305/5/17 306/6/17 307/7/17 
f 307/7/17 308/8/17 305/5/17 
s 4
f 309/8/15 310/5/15 311/6/15 
f 311/6/15 312/7/15 309/8/15 
s 8
f 305/8/12 308/5/12 310/6/12 
f 310/6/12 309/7/12 305/8/12 
s 16
f 308/8/14 307/5/14 311/6/14 
f 311/6/14 310/7/14 308/8/14 
s 32
f 307/8/11 306/5/11 312/6/11 
f 312/6/11 311/7/11 307/8/11 
s 64
f 306/8/16 305/5/16 309/6/16 
f 309/6/16 312/7/16 306/8/16 
s 2
f 313/5/17 314/6/17 315/7/17 
f 315/7/17 316/8/17 313/5/17 
s 4
f 317/8/15 318/5/15 319/6/15 
f 319/6/15 320/7/15 317/8/15 
s 8
f 313/8/12 316/5/12 318/6/12 
f 318/6/12 317/7/12 313/8/12 
s 16
f 316/8/14 315/5/14 319/6/14 
f 319/6/14 318/7/14 316/8/14 
s 32
f 315/8/11 314/5/11 320/6/11 
f 320/6/11 319/7/11 315/8/11 
s 64
f 314/8/16 313/5/16 317/6/16 
f 317/6/16 320/7/16 314/8/16 
s 2
f 321/5/17 322/6/17 323/7/17 
f 323/7/17 324/8/17 321/5/17 
s 4
f 325/8/15 326/5/15 327/6/15 
f 327/6/15 328/7/15 325/8/15 
s 8
f 321/8/12 324/5/12 326/6/12 
f 326/6/12 325/7/12 321/8/12 
s 16
f 324/8/14 323/5/14 327/6/14 
f 327/6/14 326/7/14 324/8/14 
s 32
f 323/8/11 322/5/11 328/6/11 
f 328/6/11 327/7/11 323/8/11 
s 64
f 322/8/16 321/5/16 325/6/16 
f 325/6/16 328/7/16 322/8/16 
s 2
f 329/5/11 330/6/11 331/7/11 
f 331/7/11 332/8/11 329/5/11 
s 4
f 333/8/12 334/5/12 335/6/12 
f 335/6/12 336/7/12 333/8/12 
s 8
f 329/8/17 332/5/17 334/6/17 
f 334/6/17 333/7/17 329/8/17 
s 16
f 332/8/14 331/5/14 335/6/14 
f 335/6/14 334/7/14 332/8/14 
s 32
f 331/8/15 330/5/15 336/6/15 
f 336/6/15 335/7/15 331/8/15 
s 64
f 330/8/16 329/5/16 333/6/16 
f 333/6/16 336/7/16 330/8/16 
s 2
f 337/5/11 338/6/11 339/7/11 
f 339/7/11 340/8/11 337/5/11 
s 4
f 341/8/19 342/5/19 343/6/19 
f 343/6/19 344/7/19 341/8/19 
s 8
f 337/8/13 340/5/13 342/6/13 
f 342/6/13 341/7/13 337/8/13 
s 16
f 340/8/14 339/5/14 343/6/14 
f 343/6/14 342/7/14 340/8/14 
s 32
f 339/8/15 338/5/15 344/6/15 
f 344/6/15 343/7/15 339/8/15 
s 64
f 338/8/16 337/5/16 341/6/16 
f 341/6/16 344/7/16 338/8/16 
s 2
f 345/5/11 346/6/11 347/7/11 
f 347/7/11 348/8/11 345/5/11 
s 4
f 349/8/19 350/5/19 351/6/19 
f 351/6/19 352/7/19 349/8/19 
s 8
f 345/8/13 348/5/13 350/6/13 
f 350/6/13 349/7/13 345/8/13 
s 16
f 348/8/14 347/5/14 351/6/14 
f 351/6/14 350/7/14 348/8/14 
s 32
f 347/8/15 346/5/15 352/6/15 
f 352/6/15 351/7/15 347/8/15 
s 64
f 346/8/16 345/5/16 349/6/16 
f 349/6/16 352/7/16 346/8/16 
s 2
f 353/5/20 354/6/20 355/7/20 
f 355/7/20 356/8/20 353/5/20 
s 4
f 357/8/21 358/5/21 359/6/21 
f 359/6/21 360/7/21 357/8/21 
s 8
f 353/8/17 356/5/17 358/6/17 
f 358/6/17 357/7/17 353/8/17 
s 16
f 356/8/14 355/5/14 359/6/14 
f 359/6/14 358/7/14 356/8/14 
s 32
f 355/8/15 354/5/15 360/6/15 
f 360/6/15 359/7/15 355/8/15 
s 64
f 354/8/16 353/5/16 357/6/16 
f 357/6/16 360/7/16 354/8/16 
s 2
f 361/5/20 362/6/20 363/7/20 
f 363/7/20 364/8/20 361/5/20 
s 4
f 365/8/21 366/5/21 367/6/21 
f 367/6/21 368/7/21 365/8/21 
s 8
f 361/8/17 364/5/17 366/6/17 
f 366/6/17 365/7/17 361/8/17 
s 16
f 364/8/14 363/5/14 367/6/14 
f 367/6/14 366/7/14 364/8/14 
s 32
f 363/8/15 362/5/15 368/6/15 
f 368/6/15 367/7/15 363/8/15 
s 64
f 362/8/16 361/5/16 365/6/16 
f 365/6/16 368/7/16 362/8/16 
s 2
f 369/5/20 370/6/20 371/7/20 
f 371/7/20 372/8/20 369/5/20 
s 4
f 373/8/21 374/5/21 375/6/21 
f 375/6/21 376/7/21 373/8/21 
s 8
f 369/8/17 372/5/17 374/6/17 
f 374/6/17 373/7/17 369/8/17 
s 16
f 372/8/14 371/5/14 375/6/14 
f 375/6/14 374/7/14 372/8/14 
s 32
f 371/8/15 370/5/15 376/6/15 
f 376/6/15 375/7/15 371/8/15 
s 64
f 370/8/16 369/5/16 373/6/16 
f 373/6/16 376/7/16 370/8/16 
s 2
f 377/5/20 378/6/20 379/7/20 
f 379/7/20 380/8/20 377/5/20 
s 4
f 381/8/21 382/5/21 383/6/21 
f 383/6/21 384/7/21 381/8/21 
s 8
f 377/8/17 380/5/17 382/6/17 
f 382/6/17 381/7/17 377/8/17 
s 16
f 380/8/14 379/5/14 383/6/14 
f 383/6/14 382/7/14 380/8/14 
s 32
f 379/8/15 378/5/15 384/6/15 
f 384/6/15 383/7/15 379/8/15 
s 64
f 378/8/16 377/5/16 381/6/16 
f 381/6/16 384/7/16 378/8/16 
# 288 faces

#
# object Object005
#

v  17.0000 0.0000 -0.2500
v  17.0000 2.0000 -0.2500
v  17.5000 2.0000 -0.2500
v  17.5000 0.0000 -0.2500
v  17.0000 -0.0000 0.2500
v  17.5000 -0.0000 0.2500
v  17.5000 2.0000 0.2500
v  17.0000 2.0000 0.2500
# 8 vertices

vn 0.0000 0.0000 -1.0000
vn 0.0000 -0.0000 1.0000
vn 0.0000 -1.0000 -0.0000
vn 1.0000 0.0000 -0.0000
vn 0.0000 1.0000 -0.0000
vn -1.0000 0.0000 -0.0000
# 6 vertex normals

vt 1.0000 0.0000 0.0000
vt 1.0000 1.0000 0.0000
vt 0.0000 1.0000 0.0000
vt 0.0000 0.0000 0.0000
# 4 texture coords

o Object005
g Object005
usemtl Material__26
s 2
f 385/9/22 386/10/22 387/11/22 
f 387/11/22 388/12/22 385/9/22 
s 4
f 389/12/23 390/9/23 391/10/23 
f 391/10/23 392/11/23 389/12/23 
s 8
f 385/12/24 388/9/24 390/10/24 
f 390/10/24 389/11/24 385/12/24 
s 16
f 388/12/25 387/9/25 391/10/25 
f 391/10/25 390/11/25 388/12/25 
s 32
f 387/12/26 386/9/26 392/10/26 
f 392/10/26 391/11/26 387/12/26 
s 64
f 386/12/27 385/9/27 389/10/27 
f 389/10/27 392/11/27 386/12/27 
# 12 faces

#
# object Object006
#

v  18.5000 0.0000 -0.2500
v  18.5000 2.0000 -0.2500
v  19.0000 2.0000 -0.2500
v  19.0000 0.0000 -0.2500
v  18.5000 -0.0000 0.2500
v  19.0000 -0.0000 0.2500
v  19.0000 2.0000 0.2500
v  18.5000 2.0000 0.2500
# 8 vertices

vn 0.0000 0.0000 -1.0000
vn 0.0000 -0.0000 1.0000
vn 0.0000 -1.0000 -0.0000
vn 1.0000 0.0000 -0.0000
vn 0.0000 1.0000 -0.0000
vn -1.0000 0.0000 -0.0000
# 6 vertex normals

vt 1.0000 0.0000 0.0000
vt 1.0000 1.0000 0.0000
vt 0.0000 1.0000 0.0000
vt 0.0000 0.0000 0.0000
# 4 texture coords

o Object006
g Object006
usemtl Material__26
s 2
f 393/13/28 394/14/28 395/15/28 
f 395/15/28 396/16/28 393/13/28 
s 4
f 397/16/29 398/13/29 399/14/29 
f 399/14/29 400/15/29 397/16/29 
s 8
f 393/16/30 396/13/30 398/14/30 
f 398/14/30 397/15/30 393/16/30 
s 16
f 396/16/31 395/13/31 399/14/31 
f 399/14/31 398/15/31 396/16/31 
s 32
f 395/16/32 394/13/32 400/14/32 
f 400/14/32 399/15/32 395/16/32 
s 64
f 394/16/33 393/13/33 397/14/33 
f 397/14/33 400/15/33 394/16/33 
# 12 faces

#
# object Object007
#

v  20.0000 0.0000 -0.2500
v  20.0000 2.0000 -0.2500
v  20.5000 2.0000 -0.2500
v  20.5000 0.0000 -0.2500
v  20.0000 -0.0000 0.2500
v  20.5000 -0.0000 0.2500
v  20.5000 2.0000 0.2500
v  20.0000 2.0000 0.2500
# 8 vertices

vn 0.0000 0.0000 -1.0000
vn 0.0000 -0.0000 1.0000
vn 0.0000 -1.0000 -0.0000
vn 1.0000 0.0000 -0.0000
vn 0.0000 1.0000 -0.0000
vn -1.0000 0.0000 -0.0000
# 6 vertex normals

vt 1.0000 0.0000 0.0000
vt 1.0000 1.0000 0.0000
vt 0.0000 1.0000 0.0000
vt 0.0000 0.0000 0.0000
# 4 texture coords

o Object007
g Object007
usemtl Material__26
s 2
f 401/17/34 402/18/34 403/19/34 
f 403/19/34 404/20/34 401/17/34 
s 4
f 405/20/35 406/17/35 407/18/35 
f 407/18/35 408/19/35 405/20/35 
s 8
f 401/20/36 404/17/36 406/18/36 
f 406/18/36 405/19/36 401/20/36 
s 16
f 404/20/37 403/17/37 407/18/37 
f 407/18/37 406/19/37 404/20/37 
s 32
f 403/20/38 402/17/38 408/18/38 
f 408/18/38 407/19/38 403/20/38 
s 64
f 402/20/39 401/17/39 405/18/39 
f 405/18/39 408/19/39 402/20/39 
# 12 faces

